<svg xmlns="http://www.w3.org/2000/svg" xmlns:xlink="http://www.w3.org/1999/xlink" width="114" height="20" viewBox="0 0 114 20">
  <defs>
    <clipPath id="clip-path">
      <rect width="114" height="20" fill="none"/>
    </clipPath>
  </defs>
  <g id="Repeat_Grid_1" data-name="Repeat Grid 1" clip-path="url(#clip-path)">
    <g transform="translate(-598 -607)">
      <path id="Polygon_1" data-name="Polygon 1" d="M8.5,0l2.125,6.021L17,6.184l-5.062,3.884,1.815,6.122L8.5,12.57,3.247,16.19l1.815-6.122L0,6.184l6.375-.163Z" transform="translate(598 607)" fill="#fff"/>
    </g>
    <g transform="translate(-576 -607)">
      <path id="Polygon_1-2" data-name="Polygon 1" d="M8.5,0l2.125,6.021L17,6.184l-5.062,3.884,1.815,6.122L8.5,12.57,3.247,16.19l1.815-6.122L0,6.184l6.375-.163Z" transform="translate(598 607)" fill="#fff"/>
    </g>
    <g transform="translate(-554 -607)">
      <path id="Polygon_1-3" data-name="Polygon 1" d="M8.5,0l2.125,6.021L17,6.184l-5.062,3.884,1.815,6.122L8.5,12.57,3.247,16.19l1.815-6.122L0,6.184l6.375-.163Z" transform="translate(598 607)" fill="#fff"/>
    </g>
    <g transform="translate(-532 -607)">
      <path id="Polygon_1-4" data-name="Polygon 1" d="M8.5,0l2.125,6.021L17,6.184l-5.062,3.884,1.815,6.122L8.5,12.57,3.247,16.19l1.815-6.122L0,6.184l6.375-.163Z" transform="translate(598 607)" fill="#fff"/>
    </g>
    <g transform="translate(-510 -607)">
      <path id="Polygon_1-5" data-name="Polygon 1" d="M8.5,0l2.125,6.021L17,6.184l-5.062,3.884,1.815,6.122L8.5,12.57,3.247,16.19l1.815-6.122L0,6.184l6.375-.163Z" transform="translate(598 607)" fill="#fff"/>
    </g>
  </g>
</svg>
