<svg xmlns="http://www.w3.org/2000/svg" width="24" height="28.094" viewBox="0 0 24 28.094">
  <g id="_x31_9_Private_Storage" transform="translate(-4 -1.936)">
    <path id="Path_34" data-name="Path 34" d="M16,1.936,4,6.3V16C4,26.961,15.645,29.942,15.762,29.972l.238.058.238-.058C16.355,29.942,28,26.961,28,16V6.3ZM14,21.414,9.293,16.707l1.414-1.414L14,18.586l7.293-7.293,1.414,1.414Z" fill="#fff"/>
  </g>
</svg>
